{
  "name": "recommendation",
  "plural": "recommendation",
  "base": "PersistedModel",
  "idInjection": true,
  "options": {
    "validateUpsert": true
  },
  "properties": {
    "user_id": {
      "type": "string",
      "required": true
    },
    "bio": {
      "type": "string",
      "required": true
    },
    "birth_date": {
      "type": "date"
    },
    "gender": {
      "type": "number",
      "required": true
    },
    "photo": {
      "type": "model"
    }
  },
  "validations": [],
  "relations": {},
  "acls": [],
  "methods": {}
}
